-- ALAN Standard Library v2.1
-- Locations (file name: 'lib_locations.i')


-- This library file defines the default directions (exits) and the location 'nowhere', 
-- a useful place to locate things when you want to remove them from play.
-- This file also defines four specific location classes: rooms (= indoor locations),
-- sites (= outdoor locations) dark_locations and areas. 
-- Finally, the attributes 'visited' and 'described' are defined.
-- You may modify this file in any way that suits your purposes.
-- To use this file, you should have it in the same folder as your source code file, 
-- and the line
--
-- IMPORT 'locations.i'.
--
-- in your source code.



-- ========================================================


-----  1. The location 'nowhere' and the default directions


-- ========================================================


THE nowhere ISA LOCATION

	EXIT  
		north, 
		south, 
		east, 
		west, 
		northeast, 
		southeast, 
		northwest, 
		southwest, 
		up, 
		down, 
		'in', 
		out 
		
		TO nowhere.

		
END THE nowhere.


SYNONYMS
		n = north.
		s = south.
		e = east.
		w = west.
		ne = northeast.
		se = southeast.
		nw = northwest.
		sw = southwest.
		u = up.
		d = down.


-- Note:
 

-- 1) the directions defined above (and their synonyms) are not predefined in or 
-- hardwired to the interpreter in any way, so you can replace them altogether or add new 
-- ones to be used alongside with them.


-- 2) when you want to remove things from play, you can
--
-- LOCATE [object] AT nowhere.
--
-- for example
-- 
-- THE piece_of_paper ISA OBJECT
-- ...
--    VERB tear
-- 		DOES ONLY "You tear the piece of paper to shreds."
-- 		LOCATE piece_of_paper AT nowhere.
-- 	END VERB.
--
-- END THE piece_of_paper.



-- =========================================================================


----- 2. Location classes ROOM and SITE for indoor and outdoor locations


-- =========================================================================


-- ROOM and SITE are optional location classes you can use to ease up coding.
-- All ROOMS have a floor, walls and a ceiling. All SITES have a ground and a sky.
-- Thus, you will be able to define for example
--
-- THE kitchen ISA ROOM
-- 
-- and it will automatically have a floor, walls and a ceiling,
-- 
-- or:
--
-- THE greenmeadow ISA SITE
--
-- and the ground and the sky are automatically found in that location.
--
--
-- Of course, you will still be able to define locations in the usual way, for example
--
-- THE kitchen ISA LOCATION
--
-- etc, but the floor, walls and ceiling won't be automatically included there.
-- The walls, floor, ceiling, ground and sky are not takeable or movable.
-- This library file also defines the sky to be distant and the ceiling to be out of reach, 
-- so that they can't be touched, for example.

-- (We make use of ALAN's nested locations feature in the following definitions: )


THE outdoor ISA LOCATION 
END THE outdoor.


THE indoor ISA LOCATION 
END THE indoor.


EVERY room ISA LOCATION AT indoor
	HAS floor_desc "".		-- if these values are left unchanged,
	HAS walls_desc "".		-- the descriptions of the walls, floor and 
	HAS ceiling_desc "".	 	-- ceiling will be the default "You notice nothing unusual
END EVERY.					-- about the [object]."


EVERY site ISA LOCATION AT outdoor	
	HAS ground_desc "".
	HAS sky_desc "".
END EVERY.


EVERY room_object ISA OBJECT AT indoor
END EVERY.


EVERY site_object ISA OBJECT AT outdoor
END EVERY.


THE floor ISA room_object
	IS NOT takeable.
	IS NOT movable.
	CONTAINER 			
		-- to allow 'empty/pour/put something on floor'
	DESCRIPTION ""


	-- As we have declared the floor a container, we will disable some verbs
	-- defined to work with containers:


	VERB empty_in, pour_in
	   WHEN cont
		DOES ONLY "That's not something you can $v things into."
	END VERB.


	VERB look_in
		DOES ONLY "That's not possible."
	END VERB.


	VERB put_in
	   WHEN cont
		DOES ONLY "That's not something you can $v things into."
	END VERB.


	VERB take_from
	   WHEN holder
		DOES ONLY "If you want to pick up something, just TAKE it."
	END VERB.


	VERB throw_in
	   WHEN cont
		DOES ONLY "That's not something you can $v things into."
	END VERB.
	


END THE.


THE wall ISA room_object
	NAME wall NAME walls
	IS NOT takeable.
	IS NOT movable.
	DESCRIPTION ""
END THE.



THE ceiling ISA room_object
	IS NOT takeable.
	IS NOT reachable.	
	DESCRIPTION ""	
END THE.



THE ground ISA site_object
	IS NOT takeable.
	IS NOT movable.
	CONTAINER				
		-- to allow 'empty/pour something on ground'
	DESCRIPTION ""



	-- As we have declared the ground to be a container, we will disable some verbs
	-- defined to work with containers:


	VERB empty_in, pour_in
	   WHEN cont
		DOES ONLY "That's not something you can $v things into."
	END VERB.


	VERB look_in
		DOES ONLY "That's not possible."
	END VERB.


	VERB put_in
	   WHEN cont
		DOES ONLY "That's not something you can $v things into."
	END VERB.


	VERB take_from
	   WHEN holder
		DOES ONLY "If you want to pick up something, just TAKE it."
	END VERB.


	VERB throw_in
	   WHEN cont
		DOES ONLY "That's not something you can $v things into."
	END VERB.


END THE.



THE sky ISA site_object
	IS NOT takeable.
	IS distant.
	DESCRIPTION ""
END THE.


-- We still declare some shared behaviour for all indoor and outdoor objects:


ADD TO EVERY room_object

	VERB put_against
		WHEN bulk
			CHECK THIS = wall
				ELSE "That's not possible."	
	END VERB.
    
	VERB put_behind, put_near, put_under
		WHEN bulk
			DOES ONLY "That's not possible."
	END VERB.

	VERB look_behind, look_through, look_under
		DOES ONLY "That's not possible."
	END VERB.

END ADD TO.	


ADD TO EVERY site_object
    
	VERB put_against, put_behind, put_near, put_under
		WHEN bulk
			DOES ONLY "That's not possible."
	END VERB.

	VERB look_behind, look_through, look_under
		DOES ONLY "That's not possible."
	END VERB.

END ADD TO.	


-- NOTE: it is often a good idea to modify the 'examine' verb for the above objects.
-- Here is an example for 'wall':

-- THE my_game ISA DEFINITION_BLOCK
-- ...
-- VERB examine
--    CHECK obj <> wall 
--       ELSE 
--          IF hero AT kitchen
--              THEN "The walls are lined with shelves."
--          ELSIF hero AT livingroom  
--			THEN "The wallpaper has a nice flower pattern."
--          ELSIF...
--          END IF. 
--    ...
-- END VERB.
--
-- END THE my_game.         




-- ==========================================================


----- 3. Dark locations


-- ==========================================================


ADD TO EVERY LOCATION
	IS lit. 
END ADD TO. 


EVERY dark_location ISA LOCATION
	IS NOT lit. 

	ENTERED

		IF COUNT ISA LIGHTSOURCE, IS lit, HERE > 0	
			THEN MAKE THIS lit.	
				IF CURRENT ACTOR <> hero
					THEN LOOK.
				END IF.			
		END IF.

		IF COUNT ISA LIGHTSOURCE, IS lit, HERE = 0
			THEN MAKE THIS NOT lit.
		END IF.
									
		-- These ENTERED statements take care
		-- of the dark location being correctly lit or not lit at entrance, 
		-- the WHEN rules below take care of the change when the hero is 
		-- already in the location.
		

	DESCRIPTION 
		CHECK THIS IS lit
			ELSE SAY dark_loc_desc OF my_game.

END EVERY dark_location. 


WHEN location OF hero IS NOT lit 
	AND COUNT ISA lightsource, IS lit, AT hero > 0  
THEN MAKE location OF hero lit. 
	SCHEDULE light_on AT hero AFTER 0.


EVENT light_on
	LOOK.
END EVENT.


WHEN location OF hero ISA dark_location 
	AND location OF hero IS lit
	AND COUNT ISA lightsource, IS lit, AT hero = 0  
THEN MAKE location OF hero NOT lit. 
	SCHEDULE light_off AT hero AFTER 0.


EVENT light_off
	SAY light_goes_off OF my_game.
END EVENT.


-- We make sure that dark_locations will be dark after the hero leaves them, if the hero took the
-- lightsource with him:

EVENT check_darkness
    FOR EACH dl ISA dark_location, IS lit
		DO
			IF COUNT ISA LIGHTSOURCE, AT dl = 0
				THEN MAKE dl NOT lit.
			END IF.
    END FOR.
    SCHEDULE check_darkness AFTER 1.
END EVENT.


-- This event is initialized in the start_section instance ('definitions.i'). 


-- To define a dark location, use a formulation like the following: 


-- THE basement ISA dark_location
-- 	EXIT up TO kitchen.
-- ...
-- END THE.


-- The description of a dark_location will automatically be: "It is pitch black.
-- You can't see anything at all." (Edit the dark_loc_desc in 'definitions.i' to change this.)


-- If you add a description to a dark_location, this description will be shown only
-- if/when the location is lit by any means:

-- THE basement ISA dark_location
--    DESCRIPTION "Cobwebs and old junk are the only things you see here."
-- 	EXIT up TO kitchen.
-- END THE.






-- =====================================================================


----- 4. The attributes 'visited' and 'described' 


-- =====================================================================


-- A location has the value 'visited 0' until the hero visits it for the first time, and the
-- value increases on every subsequent visit.
-- This helps when you need to control if or how many times a location has been visited,
-- and also if you want the location description to be different after the first visit.
 
-- A location has the value 'described 0' before the first location description,
-- and the value increases every time the description is shown.
-- This distinction is handy when you want the first-time description of a location to be different 
-- from the subsequent ones (even if the hero is in the location still for the first time).


ADD TO EVERY LOCATION
	HAS visited 0.	
	HAS described 0.

	ENTERED
		 IF CURRENT ACTOR = hero
			THEN 
				INCREASE visited OF THIS.	
				INCREASE described OF THIS.		
				-- The "described" attribute increases also after LOOK (see 'verbs.i').
		 END IF.

END ADD TO.						







-- end of file.



